^E:\UNI\YEAR 4\TOWERDEFENCE V1.1\GAMESLAB\GAMEENGINE\DEBUG\ASSETLIB.OBJ|E:\UNI\YEAR 4\TOWERDEFENCE V1.1\GAMESLAB\GAMEENGINE\DEBUG\ASSIMPMODEL.OBJ|E:\UNI\YEAR 4\TOWERDEFENCE V1.1\GAMESLAB\GAMEENGINE\DEBUG\ASSIMPTEXTURE.OBJ|E:\UNI\YEAR 4\TOWERDEFENCE V1.1\GAMESLAB\GAMEENGINE\DEBUG\ASTAR.OBJ|E:\UNI\YEAR 4\TOWERDEFENCE V1.1\GAMESLAB\GAMEENGINE\DEBUG\ATMOSPHERICEFFECT.OBJ|E:\UNI\YEAR 4\TOWERDEFENCE V1.1\GAMESLAB\GAMEENGINE\DEBUG\BUTTON.OBJ|E:\UNI\YEAR 4\TOWERDEFENCE V1.1\GAMESLAB\GAMEENGINE\DEBUG\CAMERA.OBJ|E:\UNI\YEAR 4\TOWERDEFENCE V1.1\GAMESLAB\GAMEENGINE\DEBUG\CATMULLROMSPLINE.OBJ|E:\UNI\YEAR 4\TOWERDEFENCE V1.1\GAMESLAB\GAMEENGINE\DEBUG\DISPLAYWINDOW.OBJ|E:\UNI\YEAR 4\TOWERDEFENCE V1.1\GAMESLAB\GAMEENGINE\DEBUG\ENEMY.OBJ|E:\UNI\YEAR 4\TOWERDEFENCE V1.1\GAMESLAB\GAMEENGINE\DEBUG\FONTSHADER.OBJ|E:\UNI\YEAR 4\TOWERDEFENCE V1.1\GAMESLAB\GAMEENGINE\DEBUG\GAMEENGINE.OBJ|E:\UNI\YEAR 4\TOWERDEFENCE V1.1\GAMESLAB\GAMEENGINE\DEBUG\GAMEWORLD.OBJ|E:\UNI\YEAR 4\TOWERDEFENCE V1.1\GAMESLAB\GAMEENGINE\DEBUG\GUI.OBJ|E:\UNI\YEAR 4\TOWERDEFENCE V1.1\GAMESLAB\GAMEENGINE\DEBUG\GUISHADER.OBJ|E:\UNI\YEAR 4\TOWERDEFENCE V1.1\GAMESLAB\GAMEENGINE\DEBUG\LIGHTINGSHADER.OBJ|E:\UNI\YEAR 4\TOWERDEFENCE V1.1\GAMESLAB\GAMEENGINE\DEBUG\MENU.OBJ|E:\UNI\YEAR 4\TOWERDEFENCE V1.1\GAMESLAB\GAMEENGINE\DEBUG\MESH.OBJ|E:\UNI\YEAR 4\TOWERDEFENCE V1.1\GAMESLAB\GAMEENGINE\DEBUG\OBJ_LOADER.OBJ|E:\UNI\YEAR 4\TOWERDEFENCE V1.1\GAMESLAB\GAMEENGINE\DEBUG\OPENGLHELPER.OBJ|E:\UNI\YEAR 4\TOWERDEFENCE V1.1\GAMESLAB\GAMEENGINE\DEBUG\PARTICLESHADER.OBJ|E:\UNI\YEAR 4\TOWERDEFENCE V1.1\GAMESLAB\GAMEENGINE\DEBUG\PARTICLESYSTEM.OBJ|E:\UNI\YEAR 4\TOWERDEFENCE V1.1\GAMESLAB\GAMEENGINE\DEBUG\PATHDRAWER.OBJ|E:\UNI\YEAR 4\TOWERDEFENCE V1.1\GAMESLAB\GAMEENGINE\DEBUG\RAY.OBJ|E:\UNI\YEAR 4\TOWERDEFENCE V1.1\GAMESLAB\GAMEENGINE\DEBUG\SHADER.OBJ|E:\UNI\YEAR 4\TOWERDEFENCE V1.1\GAMESLAB\GAMEENGINE\DEBUG\SHADOWMAPFBO.OBJ|E:\UNI\YEAR 4\TOWERDEFENCE V1.1\GAMESLAB\GAMEENGINE\DEBUG\SHADOWMAPPARTICLESHADER.OBJ|E:\UNI\YEAR 4\TOWERDEFENCE V1.1\GAMESLAB\GAMEENGINE\DEBUG\SHADOWMAPSHADER.OBJ|E:\UNI\YEAR 4\TOWERDEFENCE V1.1\GAMESLAB\GAMEENGINE\DEBUG\STB_IMAGE.OBJ|E:\UNI\YEAR 4\TOWERDEFENCE V1.1\GAMESLAB\GAMEENGINE\DEBUG\TEXT2D.OBJ|E:\UNI\YEAR 4\TOWERDEFENCE V1.1\GAMESLAB\GAMEENGINE\DEBUG\TEXTURE.OBJ|E:\UNI\YEAR 4\TOWERDEFENCE V1.1\GAMESLAB\GAMEENGINE\DEBUG\TOWER.OBJ|E:\UNI\YEAR 4\TOWERDEFENCE V1.1\GAMESLAB\GAMEENGINE\DEBUG\VERTEXBUFFER.OBJ|E:\UNI\YEAR 4\TOWERDEFENCE V1.1\GAMESLAB\GAMEENGINE\DEBUG\WAVE.OBJ
C:\WINDOWS\GLOBALIZATION\SORTING\SORTDEFAULT.NLS
E:\UNI\YEAR 4\TOWERDEFENCE V1.1\GAMESLAB\GAMEENGINE\LIB\ASSIMP.LIB
E:\UNI\YEAR 4\TOWERDEFENCE V1.1\GAMESLAB\GAMEENGINE\LIB\GLEW32.LIB
E:\UNI\YEAR 4\TOWERDEFENCE V1.1\GAMESLAB\GAMEENGINE\LIB\FREEIMAGE.LIB
E:\UNI\YEAR 4\TOWERDEFENCE V1.1\GAMESLAB\GAMEENGINE\LIB\SDL2.LIB
E:\UNI\YEAR 4\TOWERDEFENCE V1.1\GAMESLAB\GAMEENGINE\LIB\SDL2MAIN.LIB
E:\UNI\YEAR 4\TOWERDEFENCE V1.1\GAMESLAB\GAMEENGINE\LIB\SDL2TEST.LIB
C:\PROGRAM FILES (X86)\WINDOWS KITS\8.1\LIB\WINV6.3\UM\X86\OPENGL32.LIB
E:\UNI\YEAR 4\TOWERDEFENCE V1.1\GAMESLAB\GAMEENGINE\LIB\SDL2_MIXER.LIB
C:\PROGRAM FILES (X86)\WINDOWS KITS\8.1\LIB\WINV6.3\UM\X86\KERNEL32.LIB
C:\PROGRAM FILES (X86)\WINDOWS KITS\8.1\LIB\WINV6.3\UM\X86\USER32.LIB
C:\PROGRAM FILES (X86)\WINDOWS KITS\8.1\LIB\WINV6.3\UM\X86\GDI32.LIB
C:\PROGRAM FILES (X86)\WINDOWS KITS\8.1\LIB\WINV6.3\UM\X86\WINSPOOL.LIB
C:\PROGRAM FILES (X86)\WINDOWS KITS\8.1\LIB\WINV6.3\UM\X86\COMDLG32.LIB
C:\PROGRAM FILES (X86)\WINDOWS KITS\8.1\LIB\WINV6.3\UM\X86\ADVAPI32.LIB
C:\PROGRAM FILES (X86)\WINDOWS KITS\8.1\LIB\WINV6.3\UM\X86\SHELL32.LIB
C:\PROGRAM FILES (X86)\WINDOWS KITS\8.1\LIB\WINV6.3\UM\X86\OLE32.LIB
C:\PROGRAM FILES (X86)\WINDOWS KITS\8.1\LIB\WINV6.3\UM\X86\OLEAUT32.LIB
C:\PROGRAM FILES (X86)\WINDOWS KITS\8.1\LIB\WINV6.3\UM\X86\UUID.LIB
C:\PROGRAM FILES (X86)\WINDOWS KITS\8.1\LIB\WINV6.3\UM\X86\ODBC32.LIB
C:\PROGRAM FILES (X86)\WINDOWS KITS\8.1\LIB\WINV6.3\UM\X86\ODBCCP32.LIB
E:\UNI\YEAR 4\TOWERDEFENCE V1.1\GAMESLAB\GAMEENGINE\DEBUG\ASSETLIB.OBJ
E:\UNI\YEAR 4\TOWERDEFENCE V1.1\GAMESLAB\GAMEENGINE\DEBUG\ASTAR.OBJ
E:\UNI\YEAR 4\TOWERDEFENCE V1.1\GAMESLAB\GAMEENGINE\DEBUG\ATMOSPHERICEFFECT.OBJ
E:\UNI\YEAR 4\TOWERDEFENCE V1.1\GAMESLAB\GAMEENGINE\DEBUG\CATMULLROMSPLINE.OBJ
E:\UNI\YEAR 4\TOWERDEFENCE V1.1\GAMESLAB\GAMEENGINE\DEBUG\ENEMY.OBJ
E:\UNI\YEAR 4\TOWERDEFENCE V1.1\GAMESLAB\GAMEENGINE\DEBUG\FONTSHADER.OBJ
E:\UNI\YEAR 4\TOWERDEFENCE V1.1\GAMESLAB\GAMEENGINE\DEBUG\GAMEENGINE.OBJ
E:\UNI\YEAR 4\TOWERDEFENCE V1.1\GAMESLAB\GAMEENGINE\DEBUG\CAMERA.OBJ
E:\UNI\YEAR 4\TOWERDEFENCE V1.1\GAMESLAB\GAMEENGINE\DEBUG\MESH.OBJ
E:\UNI\YEAR 4\TOWERDEFENCE V1.1\GAMESLAB\GAMEENGINE\DEBUG\RAY.OBJ
E:\UNI\YEAR 4\TOWERDEFENCE V1.1\GAMESLAB\GAMEENGINE\DEBUG\GAMEWORLD.OBJ
E:\UNI\YEAR 4\TOWERDEFENCE V1.1\GAMESLAB\GAMEENGINE\DEBUG\GUISHADER.OBJ
E:\UNI\YEAR 4\TOWERDEFENCE V1.1\GAMESLAB\GAMEENGINE\DEBUG\BUTTON.OBJ
E:\UNI\YEAR 4\TOWERDEFENCE V1.1\GAMESLAB\GAMEENGINE\DEBUG\GUI.OBJ
E:\UNI\YEAR 4\TOWERDEFENCE V1.1\GAMESLAB\GAMEENGINE\DEBUG\DISPLAYWINDOW.OBJ
E:\UNI\YEAR 4\TOWERDEFENCE V1.1\GAMESLAB\GAMEENGINE\DEBUG\LIGHTINGSHADER.OBJ
E:\UNI\YEAR 4\TOWERDEFENCE V1.1\GAMESLAB\GAMEENGINE\DEBUG\MENU.OBJ
E:\UNI\YEAR 4\TOWERDEFENCE V1.1\GAMESLAB\GAMEENGINE\DEBUG\ASSIMPMODEL.OBJ
E:\UNI\YEAR 4\TOWERDEFENCE V1.1\GAMESLAB\GAMEENGINE\DEBUG\ASSIMPTEXTURE.OBJ
E:\UNI\YEAR 4\TOWERDEFENCE V1.1\GAMESLAB\GAMEENGINE\DEBUG\VERTEXBUFFER.OBJ
E:\UNI\YEAR 4\TOWERDEFENCE V1.1\GAMESLAB\GAMEENGINE\DEBUG\OBJ_LOADER.OBJ
E:\UNI\YEAR 4\TOWERDEFENCE V1.1\GAMESLAB\GAMEENGINE\DEBUG\STB_IMAGE.OBJ
E:\UNI\YEAR 4\TOWERDEFENCE V1.1\GAMESLAB\GAMEENGINE\DEBUG\TEXTURE.OBJ
E:\UNI\YEAR 4\TOWERDEFENCE V1.1\GAMESLAB\GAMEENGINE\DEBUG\OPENGLHELPER.OBJ
E:\UNI\YEAR 4\TOWERDEFENCE V1.1\GAMESLAB\GAMEENGINE\DEBUG\PARTICLESHADER.OBJ
E:\UNI\YEAR 4\TOWERDEFENCE V1.1\GAMESLAB\GAMEENGINE\DEBUG\PARTICLESYSTEM.OBJ
E:\UNI\YEAR 4\TOWERDEFENCE V1.1\GAMESLAB\GAMEENGINE\DEBUG\PATHDRAWER.OBJ
E:\UNI\YEAR 4\TOWERDEFENCE V1.1\GAMESLAB\GAMEENGINE\DEBUG\SHADER.OBJ
E:\UNI\YEAR 4\TOWERDEFENCE V1.1\GAMESLAB\GAMEENGINE\DEBUG\SHADOWMAPFBO.OBJ
E:\UNI\YEAR 4\TOWERDEFENCE V1.1\GAMESLAB\GAMEENGINE\DEBUG\SHADOWMAPPARTICLESHADER.OBJ
E:\UNI\YEAR 4\TOWERDEFENCE V1.1\GAMESLAB\GAMEENGINE\DEBUG\SHADOWMAPSHADER.OBJ
E:\UNI\YEAR 4\TOWERDEFENCE V1.1\GAMESLAB\GAMEENGINE\DEBUG\TEXT2D.OBJ
E:\UNI\YEAR 4\TOWERDEFENCE V1.1\GAMESLAB\GAMEENGINE\DEBUG\TOWER.OBJ
E:\UNI\YEAR 4\TOWERDEFENCE V1.1\GAMESLAB\GAMEENGINE\DEBUG\WAVE.OBJ
C:\WINDOWS\SYSTEM32\TZRES.DLL
D:\PROGRAM FILES (X86)\VC\LIB\MSVCPRTD.LIB
D:\PROGRAM FILES (X86)\VC\LIB\MSVCRTD.LIB
D:\PROGRAM FILES (X86)\VC\LIB\OLDNAMES.LIB
D:\PROGRAM FILES (X86)\VC\LIB\VCRUNTIMED.LIB
C:\PROGRAM FILES (X86)\WINDOWS KITS\10\LIB\10.0.10150.0\UCRT\X86\UCRTD.LIB
